sheet2/wave.vcd
$date
  Thu May 29 21:07:33 2025
$end
$version
  GHDL v0
$end
$timescale
  1 fs
$end
$scope module standard $end
$upscope $end
$scope module textio $end
$upscope $end
$scope module std_logic_1164 $end
$upscope $end
$scope module env $end
$upscope $end
$scope module cpu_constants_pkg $end
$upscope $end
$scope module tb_immediate_ext $end
$var reg 32 ! instruction_in[31:0] $end
$var reg 32 " immediate[31:0] $end
$var integer 32 # test_line $end
$scope module uut $end
$var reg 32 $ instruction_in[31:0] $end
$var reg 32 % immediate[31:0] $end
$upscope $end
$upscope $end
$enddefinitions $end
#0
b10001100011111110000101010010111 !
b10001100011111110000000000000000 "
b1 #
b10001100011111110000101010010111 $
b10001100011111110000000000000000 %
#1000000
b10010111110001001010101000101110 !
b00000000000000000000000000000000 "
b10 #
b10010111110001001010101000101110 $
b00000000000000000000000000000000 %
#2000000
b10110111000101101010011001110100 !
b11 #
b10110111000101101010011001110100 $
#3000000
b11011000001000011100110010010011 !
b11111111111111111111110110000010 "
b100 #
b11011000001000011100110010010011 $
b11111111111111111111110110000010 %
#4000000
b10011010010011101011001100110111 !
b10011010010011101011000000000000 "
b101 #
b10011010010011101011001100110111 $
b10011010010011101011000000000000 %
#5000000
b11011011101000100101001010110111 !
b11011011101000100101000000000000 "
b110 #
b11011011101000100101001010110111 $
b11011011101000100101000000000000 %
#6000000
b10001011011111010111011010110111 !
b10001011011111010111000000000000 "
b111 #
b10001011011111010111011010110111 $
b10001011011111010111000000000000 %
#7000000
b11011000111001010111110101100110 !
b00000000000000000000000000000000 "
b1000 #
b11011000111001010111110101100110 $
b00000000000000000000000000000000 %
#8000000
b01101100011101001010010001100011 !
b00000000000000000000011011001000 "
b1001 #
b01101100011101001010010001100011 $
b00000000000000000000011011001000 %
#9000000
b10011111101000011101111010110111 !
b10011111101000011101000000000000 "
b1010 #
b10011111101000011101111010110111 $
b10011111101000011101000000000000 %
#10000000
b10100101010110010101000100010100 !
b00000000000000000000000000000000 "
b1011 #
b10100101010110010101000100010100 $
b00000000000000000000000000000000 %
#11000000
b01100010011001101101011011101111 !
b00000000000001101101011000100110 "
b1100 #
b01100010011001101101011011101111 $
b00000000000001101101011000100110 %
#12000000
b01110000000001011011011100010111 !
b01110000000001011011000000000000 "
b1101 #
b01110000000001011011011100010111 $
b01110000000001011011000000000000 %
#13000000
b01001100001010110011101001010110 !
b00000000000000000000000000000000 "
b1110 #
b01001100001010110011101001010110 $
b00000000000000000000000000000000 %
#14000000
b11100100010010110011110001000110 !
b1111 #
b11100100010010110011110001000110 $
#15000000
b00001110100001001011110110010011 !
b00000000000000000000000011101000 "
b10000 #
b00001110100001001011110110010011 $
b00000000000000000000000011101000 %
#16000000
b11110110101100101001101000010011 !
b11111111111111111111111101101011 "
b10001 #
b11110110101100101001101000010011 $
b11111111111111111111111101101011 %
#17000000
b01000101110011001100110110010111 !
b01000101110011001100000000000000 "
b10010 #
b01000101110011001100110110010111 $
b01000101110011001100000000000000 %
#18000000
b01100010001010010011100101101111 !
b00000000000010010011011000100010 "
b10011 #
b01100010001010010011100101101111 $
b00000000000010010011011000100010 %
#19000000
b01111010010010000100001011100011 !
b00000000000000000000111110100100 "
b10100 #
b01111010010010000100001011100011 $
b00000000000000000000111110100100 %
#20000000
b11001010101011100111110111100110 !
b00000000000000000000000000000000 "
b10101 #
b11001010101011100111110111100110 $
b00000000000000000000000000000000 %
#21000000
b11001111111010100100101000100110 !
b10110 #
b11001111111010100100101000100110 $
#22000000
b10000111011001011010100001010110 !
b10111 #
b10000111011001011010100001010110 $
#23000000
b01111010110111111100100010101110 !
b11000 #
b01111010110111111100100010101110 $
#24000000
b10010001011010110101111000010011 !
b11111111111111111111100100010110 "
b11001 #
b10010001011010110101111000010011 $
b11111111111111111111100100010110 %
#25000000
b01100100100011011000101101100011 !
b00000000000000000000011001010110 "
b11010 #
b01100100100011011000101101100011 $
b00000000000000000000011001010110 %
#26000000
b11101100111100111110011010100100 !
b00000000000000000000000000000000 "
b11011 #
b11101100111100111110011010100100 $
b00000000000000000000000000000000 %
#27000000
b11010110000010010100001001100011 !
b11111111111111111111010101100100 "
b11100 #
b11010110000010010100001001100011 $
b11111111111111111111010101100100 %
#28000000
b00010010001011110110101101001100 !
b00000000000000000000000000000000 "
b11101 #
b00010010001011110110101101001100 $
b00000000000000000000000000000000 %
#29000000
b01010110010111111001100000010011 !
b00000000000000000000010101100101 "
b11110 #
b01010110010111111001100000010011 $
b00000000000000000000010101100101 %
#30000000
b00010110010011100001101101100011 !
b00000000000000000000000101110110 "
b11111 #
b00010110010011100001101101100011 $
b00000000000000000000000101110110 %
#31000000
b10100101111011101001011110010111 !
b10100101111011101001000000000000 "
b100000 #
b10100101111011101001011110010111 $
b10100101111011101001000000000000 %
#32000000
b00000101001011010000100000110111 !
b00000101001011010000000000000000 "
b100001 #
b00000101001011010000100000110111 $
b00000101001011010000000000000000 %
#33000000
b01011110010001010001001110010011 !
b00000000000000000000010111100100 "
b100010 #
b01011110010001010001001110010011 $
b00000000000000000000010111100100 %
#34000000
b11010101001001101001001010110111 !
b11010101001001101001000000000000 "
b100011 #
b11010101001001101001001010110111 $
b11010101001001101001000000000000 %
#35000000
b11110101000010000001111011000100 !
b00000000000000000000000000000000 "
b100100 #
b11110101000010000001111011000100 $
b00000000000000000000000000000000 %
#36000000
b11000111001101010100011111111110 !
b100101 #
b11000111001101010100011111111110 $
#37000000
b00100011111011100000011101001110 !
b100110 #
b00100011111011100000011101001110 $
#38000000
b11011110101110010001110110101110 !
b100111 #
b11011110101110010001110110101110 $
#39000000
b11011110101111100000100110010011 !
b11111111111111111111110111101011 "
b101000 #
b11011110101111100000100110010011 $
b11111111111111111111110111101011 %
#40000000
b11111010100001101011101101101111 !
b11111111111101101011011110101000 "
b101001 #
b11111010100001101011101101101111 $
b11111111111101101011011110101000 %
#41000000
b01111001001111100110000000110111 !
b01111001001111100110000000000000 "
b101010 #
b01111001001111100110000000110111 $
b01111001001111100110000000000000 %
#42000000
b11001100100101011010011110010011 !
b11111111111111111111110011001001 "
b101011 #
b11001100100101011010011110010011 $
b11111111111111111111110011001001 %
#43000000
b11001101000010000111110011100011 !
b11111111111111111111110011011000 "
b101100 #
b11001101000010000111110011100011 $
b11111111111111111111110011011000 %
#44000000
b01110110001000111000001010110111 !
b01110110001000111000000000000000 "
b101101 #
b01110110001000111000001010110111 $
b01110110001000111000000000000000 %
#45000000
b10000101001111100000001100011100 !
b00000000000000000000000000000000 "
b101110 #
b10000101001111100000001100011100 $
b00000000000000000000000000000000 %
#46000000
b11000111110100001100001010110111 !
b11000111110100001100000000000000 "
b101111 #
b11000111110100001100001010110111 $
b11000111110100001100000000000000 %
#47000000
b10101101110010110000110010110111 !
b10101101110010110000000000000000 "
b110000 #
b10101101110010110000110010110111 $
b10101101110010110000000000000000 %
#48000000
b00011110010001110011101110001110 !
b00000000000000000000000000000000 "
b110001 #
b00011110010001110011101110001110 $
b00000000000000000000000000000000 %
#49000000
b10111000011110110110000110100110 !
b110010 #
b10111000011110110110000110100110 $
#50000000
b10100011110100011101110100010011 !
b11111111111111111111101000111101 "
b110011 #
b10100011110100011101110100010011 $
b11111111111111111111101000111101 %
#51000000
b10010100111111110011111111100011 !
b11111111111111111111100101011110 "
b110100 #
b10010100111111110011111111100011 $
b11111111111111111111100101011110 %
#52000000
b00100100101100101100110101100011 !
b00000000000000000000001001011010 "
b110101 #
b00100100101100101100110101100011 $
b00000000000000000000001001011010 %
#53000000
b10001001100100010100101011100011 !
b11111111111111111111100010010100 "
b110110 #
b10001001100100010100101011100011 $
b11111111111111111111100010010100 %
#54000000
b11110001110101011101001001111110 !
b00000000000000000000000000000000 "
b110111 #
b11110001110101011101001001111110 $
b00000000000000000000000000000000 %
#55000000
b11000010001101001010001000010011 !
b11111111111111111111110000100011 "
b111000 #
b11000010001101001010001000010011 $
b11111111111111111111110000100011 %
#56000000
b10000101100101111101101000011110 !
b00000000000000000000000000000000 "
b111001 #
b10000101100101111101101000011110 $
b00000000000000000000000000000000 %
#57000000
b00011011000111001100001011101111 !
b00000000000011001100100110110000 "
b111010 #
b00011011000111001100001011101111 $
b00000000000011001100100110110000 %
#58000000
b01101010001001110100100010010111 !
b01101010001001110100000000000000 "
b111011 #
b01101010001001110100100010010111 $
b01101010001001110100000000000000 %
#59000000
b01111001001111011110000010010110 !
b00000000000000000000000000000000 "
b111100 #
b01111001001111011110000010010110 $
b00000000000000000000000000000000 %
#60000000
b01000011101110011110101010110111 !
b01000011101110011110000000000000 "
b111101 #
b01000011101110011110101010110111 $
b01000011101110011110000000000000 %
#61000000
b00101111101100110111100111111110 !
b00000000000000000000000000000000 "
b111110 #
b00101111101100110111100111111110 $
b00000000000000000000000000000000 %
#62000000
b11000110001101000010110110110111 !
b11000110001101000010000000000000 "
b111111 #
b11000110001101000010110110110111 $
b11000110001101000010000000000000 %
#63000000
b10111100101001101010101101101111 !
b11111111111101101010001111001010 "
b1000000 #
b10111100101001101010101101101111 $
b11111111111101101010001111001010 %
#64000000
b01110100110001100100010010110110 !
b00000000000000000000000000000000 "
b1000001 #
b01110100110001100100010010110110 $
b00000000000000000000000000000000 %
#65000000
b00110111011011111101100000010111 !
b00110111011011111101000000000000 "
b1000010 #
b00110111011011111101100000010111 $
b00110111011011111101000000000000 %
#66000000
b10010001100001001110001101101111 !
b11111111111101001110000100011000 "
b1000011 #
b10010001100001001110001101101111 $
b11111111111101001110000100011000 %
#67000000
b00100010100111011010100010010011 !
b00000000000000000000001000101001 "
b1000100 #
b00100010100111011010100010010011 $
b00000000000000000000001000101001 %
#68000000
b00000100110011110110100010010011 !
b00000000000000000000000001001100 "
b1000101 #
b00000100110011110110100010010011 $
b00000000000000000000000001001100 %
#69000000
b01010010111110101110011110010111 !
b01010010111110101110000000000000 "
b1000110 #
b01010010111110101110011110010111 $
b01010010111110101110000000000000 %
#70000000
b10011110000111010101110000110100 !
b00000000000000000000000000000000 "
b1000111 #
b10011110000111010101110000110100 $
b00000000000000000000000000000000 %
#71000000
b00100110010100010001011110000100 !
b1001000 #
b00100110010100010001011110000100 $
#72000000
b10011100101100100100111000100110 !
b1001001 #
b10011100101100100100111000100110 $
#73000000
b00111000111010100000110110010011 !
b00000000000000000000001110001110 "
b1001010 #
b00111000111010100000110110010011 $
b00000000000000000000001110001110 %
#74000000
b10011101111011110110001010010111 !
b10011101111011110110000000000000 "
b1001011 #
b10011101111011110110001010010111 $
b10011101111011110110000000000000 %
#75000000
b01100010111100001111000101100011 !
b00000000000000000000011000100010 "
b1001100 #
b01100010111100001111000101100011 $
b00000000000000000000011000100010 %
#76000000
b11110001100110010111100101001110 !
b00000000000000000000000000000000 "
b1001101 #
b11110001100110010111100101001110 $
b00000000000000000000000000000000 %
#77000000
b11100111000100001011000110010111 !
b11100111000100001011000000000000 "
b1001110 #
b11100111000100001011000110010111 $
b11100111000100001011000000000000 %
#78000000
b10101110100010111100011001100011 !
b11111111111111111111001011101100 "
b1001111 #
b10101110100010111100011001100011 $
b11111111111111111111001011101100 %
#79000000
b01110011001011111110110001101111 !
b00000000000011111110011100110010 "
b1010000 #
b01110011001011111110110001101111 $
b00000000000011111110011100110010 %
#80000000
b01011100000010001011010111101111 !
b00000000000010001011010111000000 "
b1010001 #
b01011100000010001011010111101111 $
b00000000000010001011010111000000 %
#81000000
b10011100111100011011101000011110 !
b00000000000000000000000000000000 "
b1010010 #
b10011100111100011011101000011110 $
b00000000000000000000000000000000 %
#82000000
b01101111111000010101001100010011 !
b00000000000000000000011011111110 "
b1010011 #
b01101111111000010101001100010011 $
b00000000000000000000011011111110 %
#83000000
b11100111000000000101000101100011 !
b11111111111111111111011001100010 "
b1010100 #
b11100111000000000101000101100011 $
b11111111111111111111011001100010 %
#84000000
b10110010100101111111010101100011 !
b11111111111111111111001100101010 "
b1010101 #
b10110010100101111111010101100011 $
b11111111111111111111001100101010 %
#85000000
b00011001011010100110111111100110 !
b00000000000000000000000000000000 "
b1010110 #
b00011001011010100110111111100110 $
b00000000000000000000000000000000 %
#86000000
b00001111011010101110111111100011 !
b00000000000000000000100011111110 "
b1010111 #
b00001111011010101110111111100011 $
b00000000000000000000100011111110 %
#87000000
b11111000010001010110100001100011 !
b11111111111111111111011110010000 "
b1011000 #
b11111000010001010110100001100011 $
b11111111111111111111011110010000 %
#88000000
b10101010101100010011100100110111 !
b10101010101100010011000000000000 "
b1011001 #
b10101010101100010011100100110111 $
b10101010101100010011000000000000 %
#89000000
b10100111001101000010111101100110 !
b00000000000000000000000000000000 "
b1011010 #
b10100111001101000010111101100110 $
b00000000000000000000000000000000 %
#90000000
b10101011101011101110110001110110 !
b1011011 #
b10101011101011101110110001110110 $
#91000000
b00101011110000001011101100110111 !
b00101011110000001011000000000000 "
b1011100 #
b00101011110000001011101100110111 $
b00101011110000001011000000000000 %
#92000000
b00110101110110111010000110101110 !
b00000000000000000000000000000000 "
b1011101 #
b00110101110110111010000110101110 $
b00000000000000000000000000000000 %
#93000000
b01011011101011111101110001101111 !
b00000000000011111101010110111010 "
b1011110 #
b01011011101011111101110001101111 $
b00000000000011111101010110111010 %
#94000000
b00100001000000010101000000110111 !
b00100001000000010101000000000000 "
b1011111 #
b00100001000000010101000000110111 $
b00100001000000010101000000000000 %
#95000000
b11000000001011001111011110010011 !
b11111111111111111111110000000010 "
b1100000 #
b11000000001011001111011110010011 $
b11111111111111111111110000000010 %
#96000000
b01010000101111111110100110001110 !
b00000000000000000000000000000000 "
b1100001 #
b01010000101111111110100110001110 $
b00000000000000000000000000000000 %
#97000000
b10011011100110101100101000110111 !
b10011011100110101100000000000000 "
b1100010 #
b10011011100110101100101000110111 $
b10011011100110101100000000000000 %
#98000000
b01011101000111000010011000110100 !
b00000000000000000000000000000000 "
b1100011 #
b01011101000111000010011000110100 $
b00000000000000000000000000000000 %
#99000000
b01010011001101100100101110010111 !
b01010011001101100100000000000000 "
b1100100 #
b01010011001101100100101110010111 $
b01010011001101100100000000000000 %
#100000000
b10010001111110000110101001100011 !
b11111111111111111111000100010100 "
b1100101 #
b10010001111110000110101001100011 $
b11111111111111111111000100010100 %
#101000000
b00001001110101100011111111101111 !
b00000000000001100011100010011100 "
b1100110 #
b00001001110101100011111111101111 $
b00000000000001100011100010011100 %
#102000000
b01110000010010000011000000010111 !
b01110000010010000011000000000000 "
b1100111 #
b01110000010010000011000000010111 $
b01110000010010000011000000000000 %
#103000000
b10100010010111111100100010110111 !
b10100010010111111100000000000000 "
b1101000 #
b10100010010111111100100010110111 $
b10100010010111111100000000000000 %
#104000000
b11111101000001100001000100010111 !
b11111101000001100001000000000000 "
b1101001 #
b11111101000001100001000100010111 $
b11111101000001100001000000000000 %
#105000000
b11110101011111011011001100000110 !
b00000000000000000000000000000000 "
b1101010 #
b11110101011111011011001100000110 $
b00000000000000000000000000000000 %
#106000000
b00011010000111111001101110010111 !
b00011010000111111001000000000000 "
b1101011 #
b00011010000111111001101110010111 $
b00011010000111111001000000000000 %
#107000000
b10100111000111010100010000101110 !
b00000000000000000000000000000000 "
b1101100 #
b10100111000111010100010000101110 $
b00000000000000000000000000000000 %
#108000000
b00110101011110001111001001111110 !
b1101101 #
b00110101011110001111001001111110 $
#109000000
b10100010100100110011011110010111 !
b10100010100100110011000000000000 "
b1101110 #
b10100010100100110011011110010111 $
b10100010100100110011000000000000 %
#110000000
b00101001010010111001010010110111 !
b00101001010010111001000000000000 "
b1101111 #
b00101001010010111001010010110111 $
b00101001010010111001000000000000 %
#111000000
b11111110110010111111001110010111 !
b11111110110010111111000000000000 "
b1110000 #
b11111110110010111111001110010111 $
b11111110110010111111000000000000 %
#112000000
b10100111001100100001101100010111 !
b10100111001100100001000000000000 "
b1110001 #
b10100111001100100001101100010111 $
b10100111001100100001000000000000 %
#113000000
b10010100111101000010010010010111 !
b10010100111101000010000000000000 "
b1110010 #
b10010100111101000010010010010111 $
b10010100111101000010000000000000 %
#114000000
b01000000110101111011011110010011 !
b00000000000000000000010000001101 "
b1110011 #
b01000000110101111011011110010011 $
b00000000000000000000010000001101 %
#115000000
b01101010000101000000111101001110 !
b00000000000000000000000000000000 "
b1110100 #
b01101010000101000000111101001110 $
b00000000000000000000000000000000 %
#116000000
b01110111011000000010010010001110 !
b1110101 #
b01110111011000000010010010001110 $
#117000000
b01111001100001011100011010010111 !
b01111001100001011100000000000000 "
b1110110 #
b01111001100001011100011010010111 $
b01111001100001011100000000000000 %
#118000000
b00111110100100101010110010110111 !
b00111110100100101010000000000000 "
b1110111 #
b00111110100100101010110010110111 $
b00111110100100101010000000000000 %
#119000000
b10011111100111100101101111101111 !
b11111111111111100101100111111000 "
b1111000 #
b10011111100111100101101111101111 $
b11111111111111100101100111111000 %
#120000000
b00101000101100100011101100010110 !
b00000000000000000000000000000000 "
b1111001 #
b00101000101100100011101100010110 $
b00000000000000000000000000000000 %
#121000000
b01010110100001111010101011001110 !
b1111010 #
b01010110100001111010101011001110 $
#122000000
b00011100010000011000101110001100 !
b1111011 #
b00011100010000011000101110001100 $
#123000000
b10101100101111001001000101110100 !
b1111100 #
b10101100101111001001000101110100 $
#124000000
b10101000000001010011011101010100 !
b1111101 #
b10101000000001010011011101010100 $
#125000000
b01010001001101000010001000010011 !
b00000000000000000000010100010011 "
b1111110 #
b01010001001101000010001000010011 $
b00000000000000000000010100010011 %
#126000000
b00100011010111111111010101100011 !
b00000000000000000000001000101010 "
b1111111 #
b00100011010111111111010101100011 $
b00000000000000000000001000101010 %
#127000000
b11000111010000011010011001000100 !
b00000000000000000000000000000000 "
b10000000 #
b11000111010000011010011001000100 $
b00000000000000000000000000000000 %
#128000000
b00110010010100110011100011100011 !
b00000000000000000000101100110000 "
b10000001 #
b00110010010100110011100011100011 $
b00000000000000000000101100110000 %
#129000000
b11110011000101110001011010110111 !
b11110011000101110001000000000000 "
b10000010 #
b11110011000101110001011010110111 $
b11110011000101110001000000000000 %
#130000000
b01011110011001001100010110010011 !
b00000000000000000000010111100110 "
b10000011 #
b01011110011001001100010110010011 $
b00000000000000000000010111100110 %
#131000000
b10101001100110110101110001011110 !
b00000000000000000000000000000000 "
b10000100 #
b10101001100110110101110001011110 $
b00000000000000000000000000000000 %
#132000000
b11010010001011001001110011000100 !
b10000101 #
b11010010001011001001110011000100 $
#133000000
b00000011011110010110111001011110 !
b10000110 #
b00000011011110010110111001011110 $
#134000000
b00011000110110111010000100010011 !
b00000000000000000000000110001101 "
b10000111 #
b00011000110110111010000100010011 $
b00000000000000000000000110001101 %
#135000000
b10011111011100101101011101100011 !
b11111111111111111111000111101110 "
b10001000 #
b10011111011100101101011101100011 $
b11111111111111111111000111101110 %
#136000000
b11010110100000111000111011101111 !
b11111111111100111000010101101000 "
b10001001 #
b11010110100000111000111011101111 $
b11111111111100111000010101101000 %
#137000000
b10101100011101001111010100010111 !
b10101100011101001111000000000000 "
b10001010 #
b10101100011101001111010100010111 $
b10101100011101001111000000000000 %
#138000000
b00011000100110011110011111101111 !
b00000000000010011110100110001000 "
b10001011 #
b00011000100110011110011111101111 $
b00000000000010011110100110001000 %
#139000000
b11111000110100010110001100010011 !
b11111111111111111111111110001101 "
b10001100 #
b11111000110100010110001100010011 $
b11111111111111111111111110001101 %
#140000000
b11111001111110010011111101011100 !
b00000000000000000000000000000000 "
b10001101 #
b11111001111110010011111101011100 $
b00000000000000000000000000000000 %
#141000000
b11100000110100010100100110110111 !
b11100000110100010100000000000000 "
b10001110 #
b11100000110100010100100110110111 $
b11100000110100010100000000000000 %
#142000000
b01110111111110011000011001101111 !
b00000000000010011000111101111110 "
b10001111 #
b01110111111110011000011001101111 $
b00000000000010011000111101111110 %
#143000000
b10000010011101101011111001101111 !
b11111111111101101011100000100110 "
b10010000 #
b10000010011101101011111001101111 $
b11111111111101101011100000100110 %
#144000000
b11111010000011010000001111001100 !
b00000000000000000000000000000000 "
b10010001 #
b11111010000011010000001111001100 $
b00000000000000000000000000000000 %
#145000000
b00001110010000110101000100010011 !
b00000000000000000000000011100100 "
b10010010 #
b00001110010000110101000100010011 $
b00000000000000000000000011100100 %
#146000000
b10011010110101110010011111100110 !
b00000000000000000000000000000000 "
b10010011 #
b10011010110101110010011111100110 $
b00000000000000000000000000000000 %
#147000000
b01110011011111110010101110010100 !
b10010100 #
b01110011011111110010101110010100 $
#148000000
b10111101010000000110000011100011 !
b11111111111111111111101111000000 "
b10010101 #
b10111101010000000110000011100011 $
b11111111111111111111101111000000 %
#149000000
b00000101000111011110100101111110 !
b00000000000000000000000000000000 "
b10010110 #
b00000101000111011110100101111110 $
b00000000000000000000000000000000 %
#150000000
b00001010000010000011011000010011 !
b00000000000000000000000010100000 "
b10010111 #
b00001010000010000011011000010011 $
b00000000000000000000000010100000 %
#151000000
b01110001000100111111011111101111 !
b00000000000000111111111100010000 "
b10011000 #
b01110001000100111111011111101111 $
b00000000000000111111111100010000 %
#152000000
b01001000011001100000100101101111 !
b00000000000001100000010010000110 "
b10011001 #
b01001000011001100000100101101111 $
b00000000000001100000010010000110 %
#153000000
b11111010110001100011001000110111 !
b11111010110001100011000000000000 "
b10011010 #
b11111010110001100011001000110111 $
b11111010110001100011000000000000 %
#154000000
b00011110110001010011001111101111 !
b00000000000001010011000111101100 "
b10011011 #
b00011110110001010011001111101111 $
b00000000000001010011000111101100 %
#155000000
b01011100000001001000110101111110 !
b00000000000000000000000000000000 "
b10011100 #
b01011100000001001000110101111110 $
b00000000000000000000000000000000 %
#156000000
b01001011110011111101100000010110 !
b10011101 #
b01001011110011111101100000010110 $
#157000000
b01111011000110111101011010110111 !
b01111011000110111101000000000000 "
b10011110 #
b01111011000110111101011010110111 $
b01111011000110111101000000000000 %
#158000000
b00011110011001001111000011101111 !
b00000000000001001111000111100110 "
b10011111 #
b00011110011001001111000011101111 $
b00000000000001001111000111100110 %
#159000000
b10110000010011000001100101100011 !
b11111111111111111111001100010010 "
b10100000 #
b10110000010011000001100101100011 $
b11111111111111111111001100010010 %
#160000000
b01010001011001110101100001101111 !
b00000000000001110101010100010110 "
b10100001 #
b01010001011001110101100001101111 $
b00000000000001110101010100010110 %
#161000000
b11100001011001101101111000111110 !
b00000000000000000000000000000000 "
b10100010 #
b11100001011001101101111000111110 $
b00000000000000000000000000000000 %
#162000000
b01101010000011010010001110110111 !
b01101010000011010010000000000000 "
b10100011 #
b01101010000011010010001110110111 $
b01101010000011010010000000000000 %
#163000000
b11101011000100010111101011011110 !
b00000000000000000000000000000000 "
b10100100 #
b11101011000100010111101011011110 $
b00000000000000000000000000000000 %
#164000000
b00010000011010111111100000110111 !
b00010000011010111111000000000000 "
b10100101 #
b00010000011010111111100000110111 $
b00010000011010111111000000000000 %
#165000000
b00110111100000011010011110110111 !
b00110111100000011010000000000000 "
b10100110 #
b00110111100000011010011110110111 $
b00110111100000011010000000000000 %
#166000000
b10110001010001011101101001101111 !
b11111111111101011101001100010100 "
b10100111 #
b10110001010001011101101001101111 $
b11111111111101011101001100010100 %
#167000000
b10010000101100000011011110101110 !
b00000000000000000000000000000000 "
b10101000 #
b10010000101100000011011110101110 $
b00000000000000000000000000000000 %
#168000000
b10010001000011001100101010110111 !
b10010001000011001100000000000000 "
b10101001 #
b10010001000011001100101010110111 $
b10010001000011001100000000000000 %
#169000000
b11011101011101110101110010010111 !
b11011101011101110101000000000000 "
b10101010 #
b11011101011101110101110010010111 $
b11011101011101110101000000000000 %
#170000000
b01000011111100001001000011100011 !
b00000000000000000000110000100000 "
b10101011 #
b01000011111100001001000011100011 $
b00000000000000000000110000100000 %
#171000000
b10000010010010111100101001101111 !
b11111111111110111100000000100100 "
b10101100 #
b10000010010010111100101001101111 $
b11111111111110111100000000100100 %
#172000000
b10000101111100111001010110110111 !
b10000101111100111001000000000000 "
b10101101 #
b10000101111100111001010110110111 $
b10000101111100111001000000000000 %
#173000000
b11101010101011100101101100001110 !
b00000000000000000000000000000000 "
b10101110 #
b11101010101011100101101100001110 $
b00000000000000000000000000000000 %
#174000000
b00011000000011000111110001100011 !
b00000000000000000000000110011000 "
b10101111 #
b00011000000011000111110001100011 $
b00000000000000000000000110011000 %
#175000000
b11101011110100001111110001101111 !
b11111111111100001111111010111100 "
b10110000 #
b11101011110100001111110001101111 $
b11111111111100001111111010111100 %
#176000000
b10010011011100010011101011100011 !
b11111111111111111111100100110100 "
b10110001 #
b10010011011100010011101011100011 $
b11111111111111111111100100110100 %
#177000000
b00010101010001101101110000010111 !
b00010101010001101101000000000000 "
b10110010 #
b00010101010001101101110000010111 $
b00010101010001101101000000000000 %
#178000000
b11101101111001100101101101101111 !
b11111111111101100101011011011110 "
b10110011 #
b11101101111001100101101101101111 $
b11111111111101100101011011011110 %
#179000000
b01000111000110001001000001010110 !
b00000000000000000000000000000000 "
b10110100 #
b01000111000110001001000001010110 $
b00000000000000000000000000000000 %
#180000000
b01010001100011011011110000110111 !
b01010001100011011011000000000000 "
b10110101 #
b01010001100011011011110000110111 $
b01010001100011011011000000000000 %
#181000000
b00000010011001010011001100010011 !
b00000000000000000000000000100110 "
b10110110 #
b00000010011001010011001100010011 $
b00000000000000000000000000100110 %
#182000000
b10101010110110110110100000110111 !
b10101010110110110110000000000000 "
b10110111 #
b10101010110110110110100000110111 $
b10101010110110110110000000000000 %
#183000000
b11010111101000111011101101101111 !
b11111111111100111011010101111010 "
b10111000 #
b11010111101000111011101101101111 $
b11111111111100111011010101111010 %
#184000000
b00100001101111011000000100110111 !
b00100001101111011000000000000000 "
b10111001 #
b00100001101111011000000100110111 $
b00100001101111011000000000000000 %
#185000000
b10100101101011010011010000010011 !
b11111111111111111111101001011010 "
b10111010 #
b10100101101011010011010000010011 $
b11111111111111111111101001011010 %
#186000000
b10110111011000010011100000010011 !
b11111111111111111111101101110110 "
b10111011 #
b10110111011000010011100000010011 $
b11111111111111111111101101110110 %
#187000000
b11010111011001010001010010110110 !
b00000000000000000000000000000000 "
b10111100 #
b11010111011001010001010010110110 $
b00000000000000000000000000000000 %
#188000000
b01001010000101101000010010010011 !
b00000000000000000000010010100001 "
b10111101 #
b01001010000101101000010010010011 $
b00000000000000000000010010100001 %
#189000000
b01000011110001010101101100100110 !
b00000000000000000000000000000000 "
b10111110 #
b01000011110001010101101100100110 $
b00000000000000000000000000000000 %
#190000000
b00101110111001011010000100110111 !
b00101110111001011010000000000000 "
b10111111 #
b00101110111001011010000100110111 $
b00101110111001011010000000000000 %
#191000000
b01100101110101111001010010101110 !
b00000000000000000000000000000000 "
b11000000 #
b01100101110101111001010010101110 $
b00000000000000000000000000000000 %
#192000000
b10010110001001011011011001101111 !
b11111111111101011011000101100010 "
b11000001 #
b10010110001001011011011001101111 $
b11111111111101011011000101100010 %
#193000000
b10001101100001011011010100110111 !
b10001101100001011011000000000000 "
b11000010 #
b10001101100001011011010100110111 $
b10001101100001011011000000000000 %
#194000000
b00000101001001011100010010010011 !
b00000000000000000000000001010010 "
b11000011 #
b00000101001001011100010010010011 $
b00000000000000000000000001010010 %
#195000000
b00101010001110011000100110010111 !
b00101010001110011000000000000000 "
b11000100 #
b00101010001110011000100110010111 $
b00101010001110011000000000000000 %
#196000000
b11010100001101010110100110010011 !
b11111111111111111111110101000011 "
b11000101 #
b11010100001101010110100110010011 $
b11111111111111111111110101000011 %
#197000000
b01011110101010111011111001001100 !
b00000000000000000000000000000000 "
b11000110 #
b01011110101010111011111001001100 $
b00000000000000000000000000000000 %
#198000000
b00000001001100111011100100011110 !
b11000111 #
b00000001001100111011100100011110 $
#199000000
b00100101011111010011010100010011 !
b00000000000000000000001001010111 "
b11001000 #
b00100101011111010011010100010011 $
b00000000000000000000001001010111 %
#200000000
b10101101100001010110001001111100 !
b00000000000000000000000000000000 "
b11001001 #
b10101101100001010110001001111100 $
b00000000000000000000000000000000 %
#201000000
b10010001110100101000001101101111 !
b11111111111100101000100100011100 "
b11001010 #
b10010001110100101000001101101111 $
b11111111111100101000100100011100 %
#202000000
b01000101000111110011111000110111 !
b01000101000111110011000000000000 "
b11001011 #
b01000101000111110011111000110111 $
b01000101000111110011000000000000 %
#203000000
b10110100001010000010000001011110 !
b00000000000000000000000000000000 "
b11001100 #
b10110100001010000010000001011110 $
b00000000000000000000000000000000 %
#204000000
b10111100001101011010110011101111 !
b11111111111101011010101111000010 "
b11001101 #
b10111100001101011010110011101111 $
b11111111111101011010101111000010 %
#205000000
b01001001110110011001011100110111 !
b01001001110110011001000000000000 "
b11001110 #
b01001001110110011001011100110111 $
b01001001110110011001000000000000 %
#206000000
b11110110010100011111110100001100 !
b00000000000000000000000000000000 "
b11001111 #
b11110110010100011111110100001100 $
b00000000000000000000000000000000 %
#207000000
b01101110111010111111011100010011 !
b00000000000000000000011011101110 "
b11010000 #
b01101110111010111111011100010011 $
b00000000000000000000011011101110 %
#208000000
b00111111101011100100100100010011 !
b00000000000000000000001111111010 "
b11010001 #
b00111111101011100100100100010011 $
b00000000000000000000001111111010 %
#209000000
b11000001100100000011010100010011 !
b11111111111111111111110000011001 "
b11010010 #
b11000001100100000011010100010011 $
b11111111111111111111110000011001 %
#210000000
b10010011011111110000110000110111 !
b10010011011111110000000000000000 "
b11010011 #
b10010011011111110000110000110111 $
b10010011011111110000000000000000 %
#211000000
b01100101011001101011001001011110 !
b00000000000000000000000000000000 "
b11010100 #
b01100101011001101011001001011110 $
b00000000000000000000000000000000 %
#212000000
b10010111100100000000111100010011 !
b11111111111111111111100101111001 "
b11010101 #
b10010111100100000000111100010011 $
b11111111111111111111100101111001 %
#213000000
b11100101011000101100010111101111 !
b11111111111100101100011001010110 "
b11010110 #
b11100101011000101100010111101111 $
b11111111111100101100011001010110 %
